*******************************************************************
                       TEST TASK
*******************************************************************

Hi Code Checker!

I Used : Open Server "Basic".
DB     : One table with all data. // SKU field unique.
DB dump: dbproduct.sql

I'm not using JQUERY library.

//-------------------------------------------
                Concept
//-------------------------------------------

 I have chosen the API concept for solving this task.
 -----

Frontend: There are much simpler solutions for this task than I have used.
For example: just add input fields to html and write a form checker in JS.

I chose the OOP concept for the form, which allows me to easily add: new fields to the form, add tests for checking fields for wrong data,
help messages for each field. This task allowed me to learn new features of the JS and OOP concept.

 -----
Backend: Written in plain PHP using classes.





Thank you for attention!
